{
  "contractName": "RequestFactoryInterface",
  "abi": [
    {
      "anonymous": false,
      "inputs": [
        {
          "indexed": false,
          "name": "request",
          "type": "address"
        },
        {
          "indexed": true,
          "name": "owner",
          "type": "address"
        },
        {
          "indexed": true,
          "name": "bucket",
          "type": "int256"
        },
        {
          "indexed": false,
          "name": "params",
          "type": "uint256[12]"
        }
      ],
      "name": "RequestCreated",
      "type": "event"
    },
    {
      "constant": false,
      "inputs": [
        {
          "name": "addressArgs",
          "type": "address[3]"
        },
        {
          "name": "uintArgs",
          "type": "uint256[12]"
        },
        {
          "name": "callData",
          "type": "bytes"
        }
      ],
      "name": "createRequest",
      "outputs": [
        {
          "name": "",
          "type": "address"
        }
      ],
      "payable": true,
      "stateMutability": "payable",
      "type": "function"
    },
    {
      "constant": false,
      "inputs": [
        {
          "name": "addressArgs",
          "type": "address[3]"
        },
        {
          "name": "uintArgs",
          "type": "uint256[12]"
        },
        {
          "name": "callData",
          "type": "bytes"
        }
      ],
      "name": "createValidatedRequest",
      "outputs": [
        {
          "name": "",
          "type": "address"
        }
      ],
      "payable": true,
      "stateMutability": "payable",
      "type": "function"
    },
    {
      "constant": true,
      "inputs": [
        {
          "name": "addressArgs",
          "type": "address[3]"
        },
        {
          "name": "uintArgs",
          "type": "uint256[12]"
        },
        {
          "name": "endowment",
          "type": "uint256"
        }
      ],
      "name": "validateRequestParams",
      "outputs": [
        {
          "name": "",
          "type": "bool[6]"
        }
      ],
      "payable": false,
      "stateMutability": "view",
      "type": "function"
    },
    {
      "constant": true,
      "inputs": [
        {
          "name": "_address",
          "type": "address"
        }
      ],
      "name": "isKnownRequest",
      "outputs": [
        {
          "name": "",
          "type": "bool"
        }
      ],
      "payable": false,
      "stateMutability": "view",
      "type": "function"
    }
  ],
  "metadata": "",
  "bytecode": "0x",
  "deployedBytecode": "0x",
  "sourceMap": "",
  "deployedSourceMap": "",
  "source": "pragma solidity 0.4.24;\n\ncontract RequestFactoryInterface {\n    event RequestCreated(address request, address indexed owner, int indexed bucket, uint[12] params);\n\n    function createRequest(address[3] addressArgs, uint[12] uintArgs, bytes callData) public payable returns (address);\n    function createValidatedRequest(address[3] addressArgs, uint[12] uintArgs, bytes callData) public payable returns (address);\n    function validateRequestParams(address[3] addressArgs, uint[12] uintArgs, uint endowment) public view returns (bool[6]);\n    function isKnownRequest(address _address) public view returns (bool);\n}",
  "sourcePath": "C:\\Users\\rvang\\Desktop\\Web3\\web3cronjobnode\\contracts\\Interface\\RequestFactoryInterface.sol",
  "ast": {
    "absolutePath": "project:/contracts/Interface/RequestFactoryInterface.sol",
    "exportedSymbols": {
      "RequestFactoryInterface": [
        191
      ]
    },
    "id": 192,
    "nodeType": "SourceUnit",
    "nodes": [
      {
        "id": 124,
        "literals": [
          "solidity",
          "0.4",
          ".24"
        ],
        "nodeType": "PragmaDirective",
        "src": "0:23:1"
      },
      {
        "baseContracts": [],
        "contractDependencies": [],
        "contractKind": "contract",
        "documentation": null,
        "fullyImplemented": false,
        "id": 191,
        "linearizedBaseContracts": [
          191
        ],
        "name": "RequestFactoryInterface",
        "nodeType": "ContractDefinition",
        "nodes": [
          {
            "anonymous": false,
            "documentation": null,
            "id": 136,
            "name": "RequestCreated",
            "nodeType": "EventDefinition",
            "parameters": {
              "id": 135,
              "nodeType": "ParameterList",
              "parameters": [
                {
                  "constant": false,
                  "id": 126,
                  "indexed": false,
                  "name": "request",
                  "nodeType": "VariableDeclaration",
                  "scope": 136,
                  "src": "85:15:1",
                  "stateVariable": false,
                  "storageLocation": "default",
                  "typeDescriptions": {
                    "typeIdentifier": "t_address",
                    "typeString": "address"
                  },
                  "typeName": {
                    "id": 125,
                    "name": "address",
                    "nodeType": "ElementaryTypeName",
                    "src": "85:7:1",
                    "typeDescriptions": {
                      "typeIdentifier": "t_address",
                      "typeString": "address"
                    }
                  },
                  "value": null,
                  "visibility": "internal"
                },
                {
                  "constant": false,
                  "id": 128,
                  "indexed": true,
                  "name": "owner",
                  "nodeType": "VariableDeclaration",
                  "scope": 136,
                  "src": "102:21:1",
                  "stateVariable": false,
                  "storageLocation": "default",
                  "typeDescriptions": {
                    "typeIdentifier": "t_address",
                    "typeString": "address"
                  },
                  "typeName": {
                    "id": 127,
                    "name": "address",
                    "nodeType": "ElementaryTypeName",
                    "src": "102:7:1",
                    "typeDescriptions": {
                      "typeIdentifier": "t_address",
                      "typeString": "address"
                    }
                  },
                  "value": null,
                  "visibility": "internal"
                },
                {
                  "constant": false,
                  "id": 130,
                  "indexed": true,
                  "name": "bucket",
                  "nodeType": "VariableDeclaration",
                  "scope": 136,
                  "src": "125:18:1",
                  "stateVariable": false,
                  "storageLocation": "default",
                  "typeDescriptions": {
                    "typeIdentifier": "t_int256",
                    "typeString": "int256"
                  },
                  "typeName": {
                    "id": 129,
                    "name": "int",
                    "nodeType": "ElementaryTypeName",
                    "src": "125:3:1",
                    "typeDescriptions": {
                      "typeIdentifier": "t_int256",
                      "typeString": "int256"
                    }
                  },
                  "value": null,
                  "visibility": "internal"
                },
                {
                  "constant": false,
                  "id": 134,
                  "indexed": false,
                  "name": "params",
                  "nodeType": "VariableDeclaration",
                  "scope": 136,
                  "src": "145:15:1",
                  "stateVariable": false,
                  "storageLocation": "default",
                  "typeDescriptions": {
                    "typeIdentifier": "t_array$_t_uint256_$12_memory_ptr",
                    "typeString": "uint256[12]"
                  },
                  "typeName": {
                    "baseType": {
                      "id": 131,
                      "name": "uint",
                      "nodeType": "ElementaryTypeName",
                      "src": "145:4:1",
                      "typeDescriptions": {
                        "typeIdentifier": "t_uint256",
                        "typeString": "uint256"
                      }
                    },
                    "id": 133,
                    "length": {
                      "argumentTypes": null,
                      "hexValue": "3132",
                      "id": 132,
                      "isConstant": false,
                      "isLValue": false,
                      "isPure": false,
                      "kind": "number",
                      "lValueRequested": false,
                      "nodeType": "Literal",
                      "src": "150:2:1",
                      "subdenomination": null,
                      "typeDescriptions": {
                        "typeIdentifier": null,
                        "typeString": null
                      },
                      "value": "12"
                    },
                    "nodeType": "ArrayTypeName",
                    "src": "145:8:1",
                    "typeDescriptions": {
                      "typeIdentifier": "t_array$_t_uint256_$12_storage_ptr",
                      "typeString": "uint256[12]"
                    }
                  },
                  "value": null,
                  "visibility": "internal"
                }
              ],
              "src": "84:77:1"
            },
            "src": "64:98:1"
          },
          {
            "body": null,
            "documentation": null,
            "id": 151,
            "implemented": false,
            "isConstructor": false,
            "isDeclaredConst": false,
            "modifiers": [],
            "name": "createRequest",
            "nodeType": "FunctionDefinition",
            "parameters": {
              "id": 147,
              "nodeType": "ParameterList",
              "parameters": [
                {
                  "constant": false,
                  "id": 140,
                  "name": "addressArgs",
                  "nodeType": "VariableDeclaration",
                  "scope": 151,
                  "src": "191:22:1",
                  "stateVariable": false,
                  "storageLocation": "default",
                  "typeDescriptions": {
                    "typeIdentifier": "t_array$_t_address_$3_memory_ptr",
                    "typeString": "address[3]"
                  },
                  "typeName": {
                    "baseType": {
                      "id": 137,
                      "name": "address",
                      "nodeType": "ElementaryTypeName",
                      "src": "191:7:1",
                      "typeDescriptions": {
                        "typeIdentifier": "t_address",
                        "typeString": "address"
                      }
                    },
                    "id": 139,
                    "length": {
                      "argumentTypes": null,
                      "hexValue": "33",
                      "id": 138,
                      "isConstant": false,
                      "isLValue": false,
                      "isPure": false,
                      "kind": "number",
                      "lValueRequested": false,
                      "nodeType": "Literal",
                      "src": "199:1:1",
                      "subdenomination": null,
                      "typeDescriptions": {
                        "typeIdentifier": null,
                        "typeString": null
                      },
                      "value": "3"
                    },
                    "nodeType": "ArrayTypeName",
                    "src": "191:10:1",
                    "typeDescriptions": {
                      "typeIdentifier": "t_array$_t_address_$3_storage_ptr",
                      "typeString": "address[3]"
                    }
                  },
                  "value": null,
                  "visibility": "internal"
                },
                {
                  "constant": false,
                  "id": 144,
                  "name": "uintArgs",
                  "nodeType": "VariableDeclaration",
                  "scope": 151,
                  "src": "215:17:1",
                  "stateVariable": false,
                  "storageLocation": "default",
                  "typeDescriptions": {
                    "typeIdentifier": "t_array$_t_uint256_$12_memory_ptr",
                    "typeString": "uint256[12]"
                  },
                  "typeName": {
                    "baseType": {
                      "id": 141,
                      "name": "uint",
                      "nodeType": "ElementaryTypeName",
                      "src": "215:4:1",
                      "typeDescriptions": {
                        "typeIdentifier": "t_uint256",
                        "typeString": "uint256"
                      }
                    },
                    "id": 143,
                    "length": {
                      "argumentTypes": null,
                      "hexValue": "3132",
                      "id": 142,
                      "isConstant": false,
                      "isLValue": false,
                      "isPure": false,
                      "kind": "number",
                      "lValueRequested": false,
                      "nodeType": "Literal",
                      "src": "220:2:1",
                      "subdenomination": null,
                      "typeDescriptions": {
                        "typeIdentifier": null,
                        "typeString": null
                      },
                      "value": "12"
                    },
                    "nodeType": "ArrayTypeName",
                    "src": "215:8:1",
                    "typeDescriptions": {
                      "typeIdentifier": "t_array$_t_uint256_$12_storage_ptr",
                      "typeString": "uint256[12]"
                    }
                  },
                  "value": null,
                  "visibility": "internal"
                },
                {
                  "constant": false,
                  "id": 146,
                  "name": "callData",
                  "nodeType": "VariableDeclaration",
                  "scope": 151,
                  "src": "234:14:1",
                  "stateVariable": false,
                  "storageLocation": "default",
                  "typeDescriptions": {
                    "typeIdentifier": "t_bytes_memory_ptr",
                    "typeString": "bytes"
                  },
                  "typeName": {
                    "id": 145,
                    "name": "bytes",
                    "nodeType": "ElementaryTypeName",
                    "src": "234:5:1",
                    "typeDescriptions": {
                      "typeIdentifier": "t_bytes_storage_ptr",
                      "typeString": "bytes"
                    }
                  },
                  "value": null,
                  "visibility": "internal"
                }
              ],
              "src": "190:59:1"
            },
            "payable": true,
            "returnParameters": {
              "id": 150,
              "nodeType": "ParameterList",
              "parameters": [
                {
                  "constant": false,
                  "id": 149,
                  "name": "",
                  "nodeType": "VariableDeclaration",
                  "scope": 151,
                  "src": "274:7:1",
                  "stateVariable": false,
                  "storageLocation": "default",
                  "typeDescriptions": {
                    "typeIdentifier": "t_address",
                    "typeString": "address"
                  },
                  "typeName": {
                    "id": 148,
                    "name": "address",
                    "nodeType": "ElementaryTypeName",
                    "src": "274:7:1",
                    "typeDescriptions": {
                      "typeIdentifier": "t_address",
                      "typeString": "address"
                    }
                  },
                  "value": null,
                  "visibility": "internal"
                }
              ],
              "src": "273:9:1"
            },
            "scope": 191,
            "src": "168:115:1",
            "stateMutability": "payable",
            "superFunction": null,
            "visibility": "public"
          },
          {
            "body": null,
            "documentation": null,
            "id": 166,
            "implemented": false,
            "isConstructor": false,
            "isDeclaredConst": false,
            "modifiers": [],
            "name": "createValidatedRequest",
            "nodeType": "FunctionDefinition",
            "parameters": {
              "id": 162,
              "nodeType": "ParameterList",
              "parameters": [
                {
                  "constant": false,
                  "id": 155,
                  "name": "addressArgs",
                  "nodeType": "VariableDeclaration",
                  "scope": 166,
                  "src": "320:22:1",
                  "stateVariable": false,
                  "storageLocation": "default",
                  "typeDescriptions": {
                    "typeIdentifier": "t_array$_t_address_$3_memory_ptr",
                    "typeString": "address[3]"
                  },
                  "typeName": {
                    "baseType": {
                      "id": 152,
                      "name": "address",
                      "nodeType": "ElementaryTypeName",
                      "src": "320:7:1",
                      "typeDescriptions": {
                        "typeIdentifier": "t_address",
                        "typeString": "address"
                      }
                    },
                    "id": 154,
                    "length": {
                      "argumentTypes": null,
                      "hexValue": "33",
                      "id": 153,
                      "isConstant": false,
                      "isLValue": false,
                      "isPure": false,
                      "kind": "number",
                      "lValueRequested": false,
                      "nodeType": "Literal",
                      "src": "328:1:1",
                      "subdenomination": null,
                      "typeDescriptions": {
                        "typeIdentifier": null,
                        "typeString": null
                      },
                      "value": "3"
                    },
                    "nodeType": "ArrayTypeName",
                    "src": "320:10:1",
                    "typeDescriptions": {
                      "typeIdentifier": "t_array$_t_address_$3_storage_ptr",
                      "typeString": "address[3]"
                    }
                  },
                  "value": null,
                  "visibility": "internal"
                },
                {
                  "constant": false,
                  "id": 159,
                  "name": "uintArgs",
                  "nodeType": "VariableDeclaration",
                  "scope": 166,
                  "src": "344:17:1",
                  "stateVariable": false,
                  "storageLocation": "default",
                  "typeDescriptions": {
                    "typeIdentifier": "t_array$_t_uint256_$12_memory_ptr",
                    "typeString": "uint256[12]"
                  },
                  "typeName": {
                    "baseType": {
                      "id": 156,
                      "name": "uint",
                      "nodeType": "ElementaryTypeName",
                      "src": "344:4:1",
                      "typeDescriptions": {
                        "typeIdentifier": "t_uint256",
                        "typeString": "uint256"
                      }
                    },
                    "id": 158,
                    "length": {
                      "argumentTypes": null,
                      "hexValue": "3132",
                      "id": 157,
                      "isConstant": false,
                      "isLValue": false,
                      "isPure": false,
                      "kind": "number",
                      "lValueRequested": false,
                      "nodeType": "Literal",
                      "src": "349:2:1",
                      "subdenomination": null,
                      "typeDescriptions": {
                        "typeIdentifier": null,
                        "typeString": null
                      },
                      "value": "12"
                    },
                    "nodeType": "ArrayTypeName",
                    "src": "344:8:1",
                    "typeDescriptions": {
                      "typeIdentifier": "t_array$_t_uint256_$12_storage_ptr",
                      "typeString": "uint256[12]"
                    }
                  },
                  "value": null,
                  "visibility": "internal"
                },
                {
                  "constant": false,
                  "id": 161,
                  "name": "callData",
                  "nodeType": "VariableDeclaration",
                  "scope": 166,
                  "src": "363:14:1",
                  "stateVariable": false,
                  "storageLocation": "default",
                  "typeDescriptions": {
                    "typeIdentifier": "t_bytes_memory_ptr",
                    "typeString": "bytes"
                  },
                  "typeName": {
                    "id": 160,
                    "name": "bytes",
                    "nodeType": "ElementaryTypeName",
                    "src": "363:5:1",
                    "typeDescriptions": {
                      "typeIdentifier": "t_bytes_storage_ptr",
                      "typeString": "bytes"
                    }
                  },
                  "value": null,
                  "visibility": "internal"
                }
              ],
              "src": "319:59:1"
            },
            "payable": true,
            "returnParameters": {
              "id": 165,
              "nodeType": "ParameterList",
              "parameters": [
                {
                  "constant": false,
                  "id": 164,
                  "name": "",
                  "nodeType": "VariableDeclaration",
                  "scope": 166,
                  "src": "403:7:1",
                  "stateVariable": false,
                  "storageLocation": "default",
                  "typeDescriptions": {
                    "typeIdentifier": "t_address",
                    "typeString": "address"
                  },
                  "typeName": {
                    "id": 163,
                    "name": "address",
                    "nodeType": "ElementaryTypeName",
                    "src": "403:7:1",
                    "typeDescriptions": {
                      "typeIdentifier": "t_address",
                      "typeString": "address"
                    }
                  },
                  "value": null,
                  "visibility": "internal"
                }
              ],
              "src": "402:9:1"
            },
            "scope": 191,
            "src": "288:124:1",
            "stateMutability": "payable",
            "superFunction": null,
            "visibility": "public"
          },
          {
            "body": null,
            "documentation": null,
            "id": 183,
            "implemented": false,
            "isConstructor": false,
            "isDeclaredConst": true,
            "modifiers": [],
            "name": "validateRequestParams",
            "nodeType": "FunctionDefinition",
            "parameters": {
              "id": 177,
              "nodeType": "ParameterList",
              "parameters": [
                {
                  "constant": false,
                  "id": 170,
                  "name": "addressArgs",
                  "nodeType": "VariableDeclaration",
                  "scope": 183,
                  "src": "448:22:1",
                  "stateVariable": false,
                  "storageLocation": "default",
                  "typeDescriptions": {
                    "typeIdentifier": "t_array$_t_address_$3_memory_ptr",
                    "typeString": "address[3]"
                  },
                  "typeName": {
                    "baseType": {
                      "id": 167,
                      "name": "address",
                      "nodeType": "ElementaryTypeName",
                      "src": "448:7:1",
                      "typeDescriptions": {
                        "typeIdentifier": "t_address",
                        "typeString": "address"
                      }
                    },
                    "id": 169,
                    "length": {
                      "argumentTypes": null,
                      "hexValue": "33",
                      "id": 168,
                      "isConstant": false,
                      "isLValue": false,
                      "isPure": false,
                      "kind": "number",
                      "lValueRequested": false,
                      "nodeType": "Literal",
                      "src": "456:1:1",
                      "subdenomination": null,
                      "typeDescriptions": {
                        "typeIdentifier": null,
                        "typeString": null
                      },
                      "value": "3"
                    },
                    "nodeType": "ArrayTypeName",
                    "src": "448:10:1",
                    "typeDescriptions": {
                      "typeIdentifier": "t_array$_t_address_$3_storage_ptr",
                      "typeString": "address[3]"
                    }
                  },
                  "value": null,
                  "visibility": "internal"
                },
                {
                  "constant": false,
                  "id": 174,
                  "name": "uintArgs",
                  "nodeType": "VariableDeclaration",
                  "scope": 183,
                  "src": "472:17:1",
                  "stateVariable": false,
                  "storageLocation": "default",
                  "typeDescriptions": {
                    "typeIdentifier": "t_array$_t_uint256_$12_memory_ptr",
                    "typeString": "uint256[12]"
                  },
                  "typeName": {
                    "baseType": {
                      "id": 171,
                      "name": "uint",
                      "nodeType": "ElementaryTypeName",
                      "src": "472:4:1",
                      "typeDescriptions": {
                        "typeIdentifier": "t_uint256",
                        "typeString": "uint256"
                      }
                    },
                    "id": 173,
                    "length": {
                      "argumentTypes": null,
                      "hexValue": "3132",
                      "id": 172,
                      "isConstant": false,
                      "isLValue": false,
                      "isPure": false,
                      "kind": "number",
                      "lValueRequested": false,
                      "nodeType": "Literal",
                      "src": "477:2:1",
                      "subdenomination": null,
                      "typeDescriptions": {
                        "typeIdentifier": null,
                        "typeString": null
                      },
                      "value": "12"
                    },
                    "nodeType": "ArrayTypeName",
                    "src": "472:8:1",
                    "typeDescriptions": {
                      "typeIdentifier": "t_array$_t_uint256_$12_storage_ptr",
                      "typeString": "uint256[12]"
                    }
                  },
                  "value": null,
                  "visibility": "internal"
                },
                {
                  "constant": false,
                  "id": 176,
                  "name": "endowment",
                  "nodeType": "VariableDeclaration",
                  "scope": 183,
                  "src": "491:14:1",
                  "stateVariable": false,
                  "storageLocation": "default",
                  "typeDescriptions": {
                    "typeIdentifier": "t_uint256",
                    "typeString": "uint256"
                  },
                  "typeName": {
                    "id": 175,
                    "name": "uint",
                    "nodeType": "ElementaryTypeName",
                    "src": "491:4:1",
                    "typeDescriptions": {
                      "typeIdentifier": "t_uint256",
                      "typeString": "uint256"
                    }
                  },
                  "value": null,
                  "visibility": "internal"
                }
              ],
              "src": "447:59:1"
            },
            "payable": false,
            "returnParameters": {
              "id": 182,
              "nodeType": "ParameterList",
              "parameters": [
                {
                  "constant": false,
                  "id": 181,
                  "name": "",
                  "nodeType": "VariableDeclaration",
                  "scope": 183,
                  "src": "528:7:1",
                  "stateVariable": false,
                  "storageLocation": "default",
                  "typeDescriptions": {
                    "typeIdentifier": "t_array$_t_bool_$6_memory_ptr",
                    "typeString": "bool[6]"
                  },
                  "typeName": {
                    "baseType": {
                      "id": 178,
                      "name": "bool",
                      "nodeType": "ElementaryTypeName",
                      "src": "528:4:1",
                      "typeDescriptions": {
                        "typeIdentifier": "t_bool",
                        "typeString": "bool"
                      }
                    },
                    "id": 180,
                    "length": {
                      "argumentTypes": null,
                      "hexValue": "36",
                      "id": 179,
                      "isConstant": false,
                      "isLValue": false,
                      "isPure": false,
                      "kind": "number",
                      "lValueRequested": false,
                      "nodeType": "Literal",
                      "src": "533:1:1",
                      "subdenomination": null,
                      "typeDescriptions": {
                        "typeIdentifier": null,
                        "typeString": null
                      },
                      "value": "6"
                    },
                    "nodeType": "ArrayTypeName",
                    "src": "528:7:1",
                    "typeDescriptions": {
                      "typeIdentifier": "t_array$_t_bool_$6_storage_ptr",
                      "typeString": "bool[6]"
                    }
                  },
                  "value": null,
                  "visibility": "internal"
                }
              ],
              "src": "527:9:1"
            },
            "scope": 191,
            "src": "417:120:1",
            "stateMutability": "view",
            "superFunction": null,
            "visibility": "public"
          },
          {
            "body": null,
            "documentation": null,
            "id": 190,
            "implemented": false,
            "isConstructor": false,
            "isDeclaredConst": true,
            "modifiers": [],
            "name": "isKnownRequest",
            "nodeType": "FunctionDefinition",
            "parameters": {
              "id": 186,
              "nodeType": "ParameterList",
              "parameters": [
                {
                  "constant": false,
                  "id": 185,
                  "name": "_address",
                  "nodeType": "VariableDeclaration",
                  "scope": 190,
                  "src": "566:16:1",
                  "stateVariable": false,
                  "storageLocation": "default",
                  "typeDescriptions": {
                    "typeIdentifier": "t_address",
                    "typeString": "address"
                  },
                  "typeName": {
                    "id": 184,
                    "name": "address",
                    "nodeType": "ElementaryTypeName",
                    "src": "566:7:1",
                    "typeDescriptions": {
                      "typeIdentifier": "t_address",
                      "typeString": "address"
                    }
                  },
                  "value": null,
                  "visibility": "internal"
                }
              ],
              "src": "565:18:1"
            },
            "payable": false,
            "returnParameters": {
              "id": 189,
              "nodeType": "ParameterList",
              "parameters": [
                {
                  "constant": false,
                  "id": 188,
                  "name": "",
                  "nodeType": "VariableDeclaration",
                  "scope": 190,
                  "src": "605:4:1",
                  "stateVariable": false,
                  "storageLocation": "default",
                  "typeDescriptions": {
                    "typeIdentifier": "t_bool",
                    "typeString": "bool"
                  },
                  "typeName": {
                    "id": 187,
                    "name": "bool",
                    "nodeType": "ElementaryTypeName",
                    "src": "605:4:1",
                    "typeDescriptions": {
                      "typeIdentifier": "t_bool",
                      "typeString": "bool"
                    }
                  },
                  "value": null,
                  "visibility": "internal"
                }
              ],
              "src": "604:6:1"
            },
            "scope": 191,
            "src": "542:69:1",
            "stateMutability": "view",
            "superFunction": null,
            "visibility": "public"
          }
        ],
        "scope": 192,
        "src": "25:588:1"
      }
    ],
    "src": "0:613:1"
  },
  "legacyAST": {
    "attributes": {
      "absolutePath": "project:/contracts/Interface/RequestFactoryInterface.sol",
      "exportedSymbols": {
        "RequestFactoryInterface": [
          191
        ]
      }
    },
    "children": [
      {
        "attributes": {
          "literals": [
            "solidity",
            "0.4",
            ".24"
          ]
        },
        "id": 124,
        "name": "PragmaDirective",
        "src": "0:23:1"
      },
      {
        "attributes": {
          "baseContracts": [
            null
          ],
          "contractDependencies": [
            null
          ],
          "contractKind": "contract",
          "documentation": null,
          "fullyImplemented": false,
          "linearizedBaseContracts": [
            191
          ],
          "name": "RequestFactoryInterface",
          "scope": 192
        },
        "children": [
          {
            "attributes": {
              "anonymous": false,
              "documentation": null,
              "name": "RequestCreated"
            },
            "children": [
              {
                "children": [
                  {
                    "attributes": {
                      "constant": false,
                      "indexed": false,
                      "name": "request",
                      "scope": 136,
                      "stateVariable": false,
                      "storageLocation": "default",
                      "type": "address",
                      "value": null,
                      "visibility": "internal"
                    },
                    "children": [
                      {
                        "attributes": {
                          "name": "address",
                          "type": "address"
                        },
                        "id": 125,
                        "name": "ElementaryTypeName",
                        "src": "85:7:1"
                      }
                    ],
                    "id": 126,
                    "name": "VariableDeclaration",
                    "src": "85:15:1"
                  },
                  {
                    "attributes": {
                      "constant": false,
                      "indexed": true,
                      "name": "owner",
                      "scope": 136,
                      "stateVariable": false,
                      "storageLocation": "default",
                      "type": "address",
                      "value": null,
                      "visibility": "internal"
                    },
                    "children": [
                      {
                        "attributes": {
                          "name": "address",
                          "type": "address"
                        },
                        "id": 127,
                        "name": "ElementaryTypeName",
                        "src": "102:7:1"
                      }
                    ],
                    "id": 128,
                    "name": "VariableDeclaration",
                    "src": "102:21:1"
                  },
                  {
                    "attributes": {
                      "constant": false,
                      "indexed": true,
                      "name": "bucket",
                      "scope": 136,
                      "stateVariable": false,
                      "storageLocation": "default",
                      "type": "int256",
                      "value": null,
                      "visibility": "internal"
                    },
                    "children": [
                      {
                        "attributes": {
                          "name": "int",
                          "type": "int256"
                        },
                        "id": 129,
                        "name": "ElementaryTypeName",
                        "src": "125:3:1"
                      }
                    ],
                    "id": 130,
                    "name": "VariableDeclaration",
                    "src": "125:18:1"
                  },
                  {
                    "attributes": {
                      "constant": false,
                      "indexed": false,
                      "name": "params",
                      "scope": 136,
                      "stateVariable": false,
                      "storageLocation": "default",
                      "type": "uint256[12]",
                      "value": null,
                      "visibility": "internal"
                    },
                    "children": [
                      {
                        "attributes": {
                          "type": "uint256[12]"
                        },
                        "children": [
                          {
                            "attributes": {
                              "name": "uint",
                              "type": "uint256"
                            },
                            "id": 131,
                            "name": "ElementaryTypeName",
                            "src": "145:4:1"
                          },
                          {
                            "attributes": {
                              "argumentTypes": null,
                              "hexvalue": "3132",
                              "isConstant": false,
                              "isLValue": false,
                              "isPure": false,
                              "lValueRequested": false,
                              "subdenomination": null,
                              "token": "number",
                              "type": null,
                              "value": "12"
                            },
                            "id": 132,
                            "name": "Literal",
                            "src": "150:2:1"
                          }
                        ],
                        "id": 133,
                        "name": "ArrayTypeName",
                        "src": "145:8:1"
                      }
                    ],
                    "id": 134,
                    "name": "VariableDeclaration",
                    "src": "145:15:1"
                  }
                ],
                "id": 135,
                "name": "ParameterList",
                "src": "84:77:1"
              }
            ],
            "id": 136,
            "name": "EventDefinition",
            "src": "64:98:1"
          },
          {
            "attributes": {
              "body": null,
              "constant": false,
              "documentation": null,
              "implemented": false,
              "isConstructor": false,
              "modifiers": [
                null
              ],
              "name": "createRequest",
              "payable": true,
              "scope": 191,
              "stateMutability": "payable",
              "superFunction": null,
              "visibility": "public"
            },
            "children": [
              {
                "children": [
                  {
                    "attributes": {
                      "constant": false,
                      "name": "addressArgs",
                      "scope": 151,
                      "stateVariable": false,
                      "storageLocation": "default",
                      "type": "address[3]",
                      "value": null,
                      "visibility": "internal"
                    },
                    "children": [
                      {
                        "attributes": {
                          "type": "address[3]"
                        },
                        "children": [
                          {
                            "attributes": {
                              "name": "address",
                              "type": "address"
                            },
                            "id": 137,
                            "name": "ElementaryTypeName",
                            "src": "191:7:1"
                          },
                          {
                            "attributes": {
                              "argumentTypes": null,
                              "hexvalue": "33",
                              "isConstant": false,
                              "isLValue": false,
                              "isPure": false,
                              "lValueRequested": false,
                              "subdenomination": null,
                              "token": "number",
                              "type": null,
                              "value": "3"
                            },
                            "id": 138,
                            "name": "Literal",
                            "src": "199:1:1"
                          }
                        ],
                        "id": 139,
                        "name": "ArrayTypeName",
                        "src": "191:10:1"
                      }
                    ],
                    "id": 140,
                    "name": "VariableDeclaration",
                    "src": "191:22:1"
                  },
                  {
                    "attributes": {
                      "constant": false,
                      "name": "uintArgs",
                      "scope": 151,
                      "stateVariable": false,
                      "storageLocation": "default",
                      "type": "uint256[12]",
                      "value": null,
                      "visibility": "internal"
                    },
                    "children": [
                      {
                        "attributes": {
                          "type": "uint256[12]"
                        },
                        "children": [
                          {
                            "attributes": {
                              "name": "uint",
                              "type": "uint256"
                            },
                            "id": 141,
                            "name": "ElementaryTypeName",
                            "src": "215:4:1"
                          },
                          {
                            "attributes": {
                              "argumentTypes": null,
                              "hexvalue": "3132",
                              "isConstant": false,
                              "isLValue": false,
                              "isPure": false,
                              "lValueRequested": false,
                              "subdenomination": null,
                              "token": "number",
                              "type": null,
                              "value": "12"
                            },
                            "id": 142,
                            "name": "Literal",
                            "src": "220:2:1"
                          }
                        ],
                        "id": 143,
                        "name": "ArrayTypeName",
                        "src": "215:8:1"
                      }
                    ],
                    "id": 144,
                    "name": "VariableDeclaration",
                    "src": "215:17:1"
                  },
                  {
                    "attributes": {
                      "constant": false,
                      "name": "callData",
                      "scope": 151,
                      "stateVariable": false,
                      "storageLocation": "default",
                      "type": "bytes",
                      "value": null,
                      "visibility": "internal"
                    },
                    "children": [
                      {
                        "attributes": {
                          "name": "bytes",
                          "type": "bytes"
                        },
                        "id": 145,
                        "name": "ElementaryTypeName",
                        "src": "234:5:1"
                      }
                    ],
                    "id": 146,
                    "name": "VariableDeclaration",
                    "src": "234:14:1"
                  }
                ],
                "id": 147,
                "name": "ParameterList",
                "src": "190:59:1"
              },
              {
                "children": [
                  {
                    "attributes": {
                      "constant": false,
                      "name": "",
                      "scope": 151,
                      "stateVariable": false,
                      "storageLocation": "default",
                      "type": "address",
                      "value": null,
                      "visibility": "internal"
                    },
                    "children": [
                      {
                        "attributes": {
                          "name": "address",
                          "type": "address"
                        },
                        "id": 148,
                        "name": "ElementaryTypeName",
                        "src": "274:7:1"
                      }
                    ],
                    "id": 149,
                    "name": "VariableDeclaration",
                    "src": "274:7:1"
                  }
                ],
                "id": 150,
                "name": "ParameterList",
                "src": "273:9:1"
              }
            ],
            "id": 151,
            "name": "FunctionDefinition",
            "src": "168:115:1"
          },
          {
            "attributes": {
              "body": null,
              "constant": false,
              "documentation": null,
              "implemented": false,
              "isConstructor": false,
              "modifiers": [
                null
              ],
              "name": "createValidatedRequest",
              "payable": true,
              "scope": 191,
              "stateMutability": "payable",
              "superFunction": null,
              "visibility": "public"
            },
            "children": [
              {
                "children": [
                  {
                    "attributes": {
                      "constant": false,
                      "name": "addressArgs",
                      "scope": 166,
                      "stateVariable": false,
                      "storageLocation": "default",
                      "type": "address[3]",
                      "value": null,
                      "visibility": "internal"
                    },
                    "children": [
                      {
                        "attributes": {
                          "type": "address[3]"
                        },
                        "children": [
                          {
                            "attributes": {
                              "name": "address",
                              "type": "address"
                            },
                            "id": 152,
                            "name": "ElementaryTypeName",
                            "src": "320:7:1"
                          },
                          {
                            "attributes": {
                              "argumentTypes": null,
                              "hexvalue": "33",
                              "isConstant": false,
                              "isLValue": false,
                              "isPure": false,
                              "lValueRequested": false,
                              "subdenomination": null,
                              "token": "number",
                              "type": null,
                              "value": "3"
                            },
                            "id": 153,
                            "name": "Literal",
                            "src": "328:1:1"
                          }
                        ],
                        "id": 154,
                        "name": "ArrayTypeName",
                        "src": "320:10:1"
                      }
                    ],
                    "id": 155,
                    "name": "VariableDeclaration",
                    "src": "320:22:1"
                  },
                  {
                    "attributes": {
                      "constant": false,
                      "name": "uintArgs",
                      "scope": 166,
                      "stateVariable": false,
                      "storageLocation": "default",
                      "type": "uint256[12]",
                      "value": null,
                      "visibility": "internal"
                    },
                    "children": [
                      {
                        "attributes": {
                          "type": "uint256[12]"
                        },
                        "children": [
                          {
                            "attributes": {
                              "name": "uint",
                              "type": "uint256"
                            },
                            "id": 156,
                            "name": "ElementaryTypeName",
                            "src": "344:4:1"
                          },
                          {
                            "attributes": {
                              "argumentTypes": null,
                              "hexvalue": "3132",
                              "isConstant": false,
                              "isLValue": false,
                              "isPure": false,
                              "lValueRequested": false,
                              "subdenomination": null,
                              "token": "number",
                              "type": null,
                              "value": "12"
                            },
                            "id": 157,
                            "name": "Literal",
                            "src": "349:2:1"
                          }
                        ],
                        "id": 158,
                        "name": "ArrayTypeName",
                        "src": "344:8:1"
                      }
                    ],
                    "id": 159,
                    "name": "VariableDeclaration",
                    "src": "344:17:1"
                  },
                  {
                    "attributes": {
                      "constant": false,
                      "name": "callData",
                      "scope": 166,
                      "stateVariable": false,
                      "storageLocation": "default",
                      "type": "bytes",
                      "value": null,
                      "visibility": "internal"
                    },
                    "children": [
                      {
                        "attributes": {
                          "name": "bytes",
                          "type": "bytes"
                        },
                        "id": 160,
                        "name": "ElementaryTypeName",
                        "src": "363:5:1"
                      }
                    ],
                    "id": 161,
                    "name": "VariableDeclaration",
                    "src": "363:14:1"
                  }
                ],
                "id": 162,
                "name": "ParameterList",
                "src": "319:59:1"
              },
              {
                "children": [
                  {
                    "attributes": {
                      "constant": false,
                      "name": "",
                      "scope": 166,
                      "stateVariable": false,
                      "storageLocation": "default",
                      "type": "address",
                      "value": null,
                      "visibility": "internal"
                    },
                    "children": [
                      {
                        "attributes": {
                          "name": "address",
                          "type": "address"
                        },
                        "id": 163,
                        "name": "ElementaryTypeName",
                        "src": "403:7:1"
                      }
                    ],
                    "id": 164,
                    "name": "VariableDeclaration",
                    "src": "403:7:1"
                  }
                ],
                "id": 165,
                "name": "ParameterList",
                "src": "402:9:1"
              }
            ],
            "id": 166,
            "name": "FunctionDefinition",
            "src": "288:124:1"
          },
          {
            "attributes": {
              "body": null,
              "constant": true,
              "documentation": null,
              "implemented": false,
              "isConstructor": false,
              "modifiers": [
                null
              ],
              "name": "validateRequestParams",
              "payable": false,
              "scope": 191,
              "stateMutability": "view",
              "superFunction": null,
              "visibility": "public"
            },
            "children": [
              {
                "children": [
                  {
                    "attributes": {
                      "constant": false,
                      "name": "addressArgs",
                      "scope": 183,
                      "stateVariable": false,
                      "storageLocation": "default",
                      "type": "address[3]",
                      "value": null,
                      "visibility": "internal"
                    },
                    "children": [
                      {
                        "attributes": {
                          "type": "address[3]"
                        },
                        "children": [
                          {
                            "attributes": {
                              "name": "address",
                              "type": "address"
                            },
                            "id": 167,
                            "name": "ElementaryTypeName",
                            "src": "448:7:1"
                          },
                          {
                            "attributes": {
                              "argumentTypes": null,
                              "hexvalue": "33",
                              "isConstant": false,
                              "isLValue": false,
                              "isPure": false,
                              "lValueRequested": false,
                              "subdenomination": null,
                              "token": "number",
                              "type": null,
                              "value": "3"
                            },
                            "id": 168,
                            "name": "Literal",
                            "src": "456:1:1"
                          }
                        ],
                        "id": 169,
                        "name": "ArrayTypeName",
                        "src": "448:10:1"
                      }
                    ],
                    "id": 170,
                    "name": "VariableDeclaration",
                    "src": "448:22:1"
                  },
                  {
                    "attributes": {
                      "constant": false,
                      "name": "uintArgs",
                      "scope": 183,
                      "stateVariable": false,
                      "storageLocation": "default",
                      "type": "uint256[12]",
                      "value": null,
                      "visibility": "internal"
                    },
                    "children": [
                      {
                        "attributes": {
                          "type": "uint256[12]"
                        },
                        "children": [
                          {
                            "attributes": {
                              "name": "uint",
                              "type": "uint256"
                            },
                            "id": 171,
                            "name": "ElementaryTypeName",
                            "src": "472:4:1"
                          },
                          {
                            "attributes": {
                              "argumentTypes": null,
                              "hexvalue": "3132",
                              "isConstant": false,
                              "isLValue": false,
                              "isPure": false,
                              "lValueRequested": false,
                              "subdenomination": null,
                              "token": "number",
                              "type": null,
                              "value": "12"
                            },
                            "id": 172,
                            "name": "Literal",
                            "src": "477:2:1"
                          }
                        ],
                        "id": 173,
                        "name": "ArrayTypeName",
                        "src": "472:8:1"
                      }
                    ],
                    "id": 174,
                    "name": "VariableDeclaration",
                    "src": "472:17:1"
                  },
                  {
                    "attributes": {
                      "constant": false,
                      "name": "endowment",
                      "scope": 183,
                      "stateVariable": false,
                      "storageLocation": "default",
                      "type": "uint256",
                      "value": null,
                      "visibility": "internal"
                    },
                    "children": [
                      {
                        "attributes": {
                          "name": "uint",
                          "type": "uint256"
                        },
                        "id": 175,
                        "name": "ElementaryTypeName",
                        "src": "491:4:1"
                      }
                    ],
                    "id": 176,
                    "name": "VariableDeclaration",
                    "src": "491:14:1"
                  }
                ],
                "id": 177,
                "name": "ParameterList",
                "src": "447:59:1"
              },
              {
                "children": [
                  {
                    "attributes": {
                      "constant": false,
                      "name": "",
                      "scope": 183,
                      "stateVariable": false,
                      "storageLocation": "default",
                      "type": "bool[6]",
                      "value": null,
                      "visibility": "internal"
                    },
                    "children": [
                      {
                        "attributes": {
                          "type": "bool[6]"
                        },
                        "children": [
                          {
                            "attributes": {
                              "name": "bool",
                              "type": "bool"
                            },
                            "id": 178,
                            "name": "ElementaryTypeName",
                            "src": "528:4:1"
                          },
                          {
                            "attributes": {
                              "argumentTypes": null,
                              "hexvalue": "36",
                              "isConstant": false,
                              "isLValue": false,
                              "isPure": false,
                              "lValueRequested": false,
                              "subdenomination": null,
                              "token": "number",
                              "type": null,
                              "value": "6"
                            },
                            "id": 179,
                            "name": "Literal",
                            "src": "533:1:1"
                          }
                        ],
                        "id": 180,
                        "name": "ArrayTypeName",
                        "src": "528:7:1"
                      }
                    ],
                    "id": 181,
                    "name": "VariableDeclaration",
                    "src": "528:7:1"
                  }
                ],
                "id": 182,
                "name": "ParameterList",
                "src": "527:9:1"
              }
            ],
            "id": 183,
            "name": "FunctionDefinition",
            "src": "417:120:1"
          },
          {
            "attributes": {
              "body": null,
              "constant": true,
              "documentation": null,
              "implemented": false,
              "isConstructor": false,
              "modifiers": [
                null
              ],
              "name": "isKnownRequest",
              "payable": false,
              "scope": 191,
              "stateMutability": "view",
              "superFunction": null,
              "visibility": "public"
            },
            "children": [
              {
                "children": [
                  {
                    "attributes": {
                      "constant": false,
                      "name": "_address",
                      "scope": 190,
                      "stateVariable": false,
                      "storageLocation": "default",
                      "type": "address",
                      "value": null,
                      "visibility": "internal"
                    },
                    "children": [
                      {
                        "attributes": {
                          "name": "address",
                          "type": "address"
                        },
                        "id": 184,
                        "name": "ElementaryTypeName",
                        "src": "566:7:1"
                      }
                    ],
                    "id": 185,
                    "name": "VariableDeclaration",
                    "src": "566:16:1"
                  }
                ],
                "id": 186,
                "name": "ParameterList",
                "src": "565:18:1"
              },
              {
                "children": [
                  {
                    "attributes": {
                      "constant": false,
                      "name": "",
                      "scope": 190,
                      "stateVariable": false,
                      "storageLocation": "default",
                      "type": "bool",
                      "value": null,
                      "visibility": "internal"
                    },
                    "children": [
                      {
                        "attributes": {
                          "name": "bool",
                          "type": "bool"
                        },
                        "id": 187,
                        "name": "ElementaryTypeName",
                        "src": "605:4:1"
                      }
                    ],
                    "id": 188,
                    "name": "VariableDeclaration",
                    "src": "605:4:1"
                  }
                ],
                "id": 189,
                "name": "ParameterList",
                "src": "604:6:1"
              }
            ],
            "id": 190,
            "name": "FunctionDefinition",
            "src": "542:69:1"
          }
        ],
        "id": 191,
        "name": "ContractDefinition",
        "src": "25:588:1"
      }
    ],
    "id": 192,
    "name": "SourceUnit",
    "src": "0:613:1"
  },
  "compiler": {
    "name": "solc",
    "version": "0.4.24+commit.e67f0147.Emscripten.clang"
  },
  "networks": {},
  "schemaVersion": "3.4.3",
  "updatedAt": "2021-09-30T16:15:03.512Z",
  "devdoc": {
    "methods": {}
  },
  "userdoc": {
    "methods": {}
  }
}