{
  "contractName": "TransactionRequestInterface",
  "abi": [
    {
      "constant": false,
      "inputs": [],
      "name": "execute",
      "outputs": [
        {
          "name": "",
          "type": "bool"
        }
      ],
      "payable": false,
      "stateMutability": "nonpayable",
      "type": "function"
    },
    {
      "constant": false,
      "inputs": [],
      "name": "cancel",
      "outputs": [
        {
          "name": "",
          "type": "bool"
        }
      ],
      "payable": false,
      "stateMutability": "nonpayable",
      "type": "function"
    },
    {
      "constant": false,
      "inputs": [],
      "name": "claim",
      "outputs": [
        {
          "name": "",
          "type": "bool"
        }
      ],
      "payable": true,
      "stateMutability": "payable",
      "type": "function"
    },
    {
      "constant": false,
      "inputs": [
        {
          "name": "recipient",
          "type": "address"
        },
        {
          "name": "callData",
          "type": "bytes"
        }
      ],
      "name": "proxy",
      "outputs": [
        {
          "name": "",
          "type": "bool"
        }
      ],
      "payable": true,
      "stateMutability": "payable",
      "type": "function"
    },
    {
      "constant": true,
      "inputs": [],
      "name": "requestData",
      "outputs": [
        {
          "name": "",
          "type": "address[6]"
        },
        {
          "name": "",
          "type": "bool[3]"
        },
        {
          "name": "",
          "type": "uint256[15]"
        },
        {
          "name": "",
          "type": "uint8[1]"
        }
      ],
      "payable": false,
      "stateMutability": "view",
      "type": "function"
    },
    {
      "constant": true,
      "inputs": [],
      "name": "callData",
      "outputs": [
        {
          "name": "",
          "type": "bytes"
        }
      ],
      "payable": false,
      "stateMutability": "view",
      "type": "function"
    },
    {
      "constant": false,
      "inputs": [],
      "name": "refundClaimDeposit",
      "outputs": [
        {
          "name": "",
          "type": "bool"
        }
      ],
      "payable": false,
      "stateMutability": "nonpayable",
      "type": "function"
    },
    {
      "constant": false,
      "inputs": [],
      "name": "sendFee",
      "outputs": [
        {
          "name": "",
          "type": "bool"
        }
      ],
      "payable": false,
      "stateMutability": "nonpayable",
      "type": "function"
    },
    {
      "constant": false,
      "inputs": [],
      "name": "sendBounty",
      "outputs": [
        {
          "name": "",
          "type": "bool"
        }
      ],
      "payable": false,
      "stateMutability": "nonpayable",
      "type": "function"
    },
    {
      "constant": false,
      "inputs": [
        {
          "name": "recipient",
          "type": "address"
        }
      ],
      "name": "sendOwnerEther",
      "outputs": [
        {
          "name": "",
          "type": "bool"
        }
      ],
      "payable": false,
      "stateMutability": "nonpayable",
      "type": "function"
    },
    {
      "constant": false,
      "inputs": [],
      "name": "sendOwnerEther",
      "outputs": [
        {
          "name": "",
          "type": "bool"
        }
      ],
      "payable": false,
      "stateMutability": "nonpayable",
      "type": "function"
    }
  ],
  "metadata": "",
  "bytecode": "0x",
  "deployedBytecode": "0x",
  "sourceMap": "",
  "deployedSourceMap": "",
  "source": "pragma solidity 0.4.24;\n\ncontract TransactionRequestInterface {\n    \n    // Primary actions\n    function execute() public returns (bool);\n    function cancel() public returns (bool);\n    function claim() public payable returns (bool);\n\n    // Proxy function\n    function proxy(address recipient, bytes callData) public payable returns (bool);\n\n    // Data accessors\n    function requestData() public view returns (address[6], bool[3], uint[15], uint8[1]);\n    function callData() public view returns (bytes);\n\n    // Pull mechanisms for payments.\n    function refundClaimDeposit() public returns (bool);\n    function sendFee() public returns (bool);\n    function sendBounty() public returns (bool);\n    function sendOwnerEther() public returns (bool);\n    function sendOwnerEther(address recipient) public returns (bool);\n}\n",
  "sourcePath": "C:\\Users\\rvang\\Desktop\\Web3\\web3cronjobnode\\contracts\\Interface\\TransactionRequestInterface.sol",
  "ast": {
    "absolutePath": "project:/contracts/Interface/TransactionRequestInterface.sol",
    "exportedSymbols": {
      "TransactionRequestInterface": [
        300
      ]
    },
    "id": 301,
    "nodeType": "SourceUnit",
    "nodes": [
      {
        "id": 224,
        "literals": [
          "solidity",
          "0.4",
          ".24"
        ],
        "nodeType": "PragmaDirective",
        "src": "0:23:3"
      },
      {
        "baseContracts": [],
        "contractDependencies": [],
        "contractKind": "contract",
        "documentation": null,
        "fullyImplemented": false,
        "id": 300,
        "linearizedBaseContracts": [
          300
        ],
        "name": "TransactionRequestInterface",
        "nodeType": "ContractDefinition",
        "nodes": [
          {
            "body": null,
            "documentation": null,
            "id": 229,
            "implemented": false,
            "isConstructor": false,
            "isDeclaredConst": false,
            "modifiers": [],
            "name": "execute",
            "nodeType": "FunctionDefinition",
            "parameters": {
              "id": 225,
              "nodeType": "ParameterList",
              "parameters": [],
              "src": "112:2:3"
            },
            "payable": false,
            "returnParameters": {
              "id": 228,
              "nodeType": "ParameterList",
              "parameters": [
                {
                  "constant": false,
                  "id": 227,
                  "name": "",
                  "nodeType": "VariableDeclaration",
                  "scope": 229,
                  "src": "131:4:3",
                  "stateVariable": false,
                  "storageLocation": "default",
                  "typeDescriptions": {
                    "typeIdentifier": "t_bool",
                    "typeString": "bool"
                  },
                  "typeName": {
                    "id": 226,
                    "name": "bool",
                    "nodeType": "ElementaryTypeName",
                    "src": "131:4:3",
                    "typeDescriptions": {
                      "typeIdentifier": "t_bool",
                      "typeString": "bool"
                    }
                  },
                  "value": null,
                  "visibility": "internal"
                }
              ],
              "src": "130:6:3"
            },
            "scope": 300,
            "src": "96:41:3",
            "stateMutability": "nonpayable",
            "superFunction": null,
            "visibility": "public"
          },
          {
            "body": null,
            "documentation": null,
            "id": 234,
            "implemented": false,
            "isConstructor": false,
            "isDeclaredConst": false,
            "modifiers": [],
            "name": "cancel",
            "nodeType": "FunctionDefinition",
            "parameters": {
              "id": 230,
              "nodeType": "ParameterList",
              "parameters": [],
              "src": "157:2:3"
            },
            "payable": false,
            "returnParameters": {
              "id": 233,
              "nodeType": "ParameterList",
              "parameters": [
                {
                  "constant": false,
                  "id": 232,
                  "name": "",
                  "nodeType": "VariableDeclaration",
                  "scope": 234,
                  "src": "176:4:3",
                  "stateVariable": false,
                  "storageLocation": "default",
                  "typeDescriptions": {
                    "typeIdentifier": "t_bool",
                    "typeString": "bool"
                  },
                  "typeName": {
                    "id": 231,
                    "name": "bool",
                    "nodeType": "ElementaryTypeName",
                    "src": "176:4:3",
                    "typeDescriptions": {
                      "typeIdentifier": "t_bool",
                      "typeString": "bool"
                    }
                  },
                  "value": null,
                  "visibility": "internal"
                }
              ],
              "src": "175:6:3"
            },
            "scope": 300,
            "src": "142:40:3",
            "stateMutability": "nonpayable",
            "superFunction": null,
            "visibility": "public"
          },
          {
            "body": null,
            "documentation": null,
            "id": 239,
            "implemented": false,
            "isConstructor": false,
            "isDeclaredConst": false,
            "modifiers": [],
            "name": "claim",
            "nodeType": "FunctionDefinition",
            "parameters": {
              "id": 235,
              "nodeType": "ParameterList",
              "parameters": [],
              "src": "201:2:3"
            },
            "payable": true,
            "returnParameters": {
              "id": 238,
              "nodeType": "ParameterList",
              "parameters": [
                {
                  "constant": false,
                  "id": 237,
                  "name": "",
                  "nodeType": "VariableDeclaration",
                  "scope": 239,
                  "src": "228:4:3",
                  "stateVariable": false,
                  "storageLocation": "default",
                  "typeDescriptions": {
                    "typeIdentifier": "t_bool",
                    "typeString": "bool"
                  },
                  "typeName": {
                    "id": 236,
                    "name": "bool",
                    "nodeType": "ElementaryTypeName",
                    "src": "228:4:3",
                    "typeDescriptions": {
                      "typeIdentifier": "t_bool",
                      "typeString": "bool"
                    }
                  },
                  "value": null,
                  "visibility": "internal"
                }
              ],
              "src": "227:6:3"
            },
            "scope": 300,
            "src": "187:47:3",
            "stateMutability": "payable",
            "superFunction": null,
            "visibility": "public"
          },
          {
            "body": null,
            "documentation": null,
            "id": 248,
            "implemented": false,
            "isConstructor": false,
            "isDeclaredConst": false,
            "modifiers": [],
            "name": "proxy",
            "nodeType": "FunctionDefinition",
            "parameters": {
              "id": 244,
              "nodeType": "ParameterList",
              "parameters": [
                {
                  "constant": false,
                  "id": 241,
                  "name": "recipient",
                  "nodeType": "VariableDeclaration",
                  "scope": 248,
                  "src": "277:17:3",
                  "stateVariable": false,
                  "storageLocation": "default",
                  "typeDescriptions": {
                    "typeIdentifier": "t_address",
                    "typeString": "address"
                  },
                  "typeName": {
                    "id": 240,
                    "name": "address",
                    "nodeType": "ElementaryTypeName",
                    "src": "277:7:3",
                    "typeDescriptions": {
                      "typeIdentifier": "t_address",
                      "typeString": "address"
                    }
                  },
                  "value": null,
                  "visibility": "internal"
                },
                {
                  "constant": false,
                  "id": 243,
                  "name": "callData",
                  "nodeType": "VariableDeclaration",
                  "scope": 248,
                  "src": "296:14:3",
                  "stateVariable": false,
                  "storageLocation": "default",
                  "typeDescriptions": {
                    "typeIdentifier": "t_bytes_memory_ptr",
                    "typeString": "bytes"
                  },
                  "typeName": {
                    "id": 242,
                    "name": "bytes",
                    "nodeType": "ElementaryTypeName",
                    "src": "296:5:3",
                    "typeDescriptions": {
                      "typeIdentifier": "t_bytes_storage_ptr",
                      "typeString": "bytes"
                    }
                  },
                  "value": null,
                  "visibility": "internal"
                }
              ],
              "src": "276:35:3"
            },
            "payable": true,
            "returnParameters": {
              "id": 247,
              "nodeType": "ParameterList",
              "parameters": [
                {
                  "constant": false,
                  "id": 246,
                  "name": "",
                  "nodeType": "VariableDeclaration",
                  "scope": 248,
                  "src": "336:4:3",
                  "stateVariable": false,
                  "storageLocation": "default",
                  "typeDescriptions": {
                    "typeIdentifier": "t_bool",
                    "typeString": "bool"
                  },
                  "typeName": {
                    "id": 245,
                    "name": "bool",
                    "nodeType": "ElementaryTypeName",
                    "src": "336:4:3",
                    "typeDescriptions": {
                      "typeIdentifier": "t_bool",
                      "typeString": "bool"
                    }
                  },
                  "value": null,
                  "visibility": "internal"
                }
              ],
              "src": "335:6:3"
            },
            "scope": 300,
            "src": "262:80:3",
            "stateMutability": "payable",
            "superFunction": null,
            "visibility": "public"
          },
          {
            "body": null,
            "documentation": null,
            "id": 267,
            "implemented": false,
            "isConstructor": false,
            "isDeclaredConst": true,
            "modifiers": [],
            "name": "requestData",
            "nodeType": "FunctionDefinition",
            "parameters": {
              "id": 249,
              "nodeType": "ParameterList",
              "parameters": [],
              "src": "390:2:3"
            },
            "payable": false,
            "returnParameters": {
              "id": 266,
              "nodeType": "ParameterList",
              "parameters": [
                {
                  "constant": false,
                  "id": 253,
                  "name": "",
                  "nodeType": "VariableDeclaration",
                  "scope": 267,
                  "src": "414:10:3",
                  "stateVariable": false,
                  "storageLocation": "default",
                  "typeDescriptions": {
                    "typeIdentifier": "t_array$_t_address_$6_memory_ptr",
                    "typeString": "address[6]"
                  },
                  "typeName": {
                    "baseType": {
                      "id": 250,
                      "name": "address",
                      "nodeType": "ElementaryTypeName",
                      "src": "414:7:3",
                      "typeDescriptions": {
                        "typeIdentifier": "t_address",
                        "typeString": "address"
                      }
                    },
                    "id": 252,
                    "length": {
                      "argumentTypes": null,
                      "hexValue": "36",
                      "id": 251,
                      "isConstant": false,
                      "isLValue": false,
                      "isPure": false,
                      "kind": "number",
                      "lValueRequested": false,
                      "nodeType": "Literal",
                      "src": "422:1:3",
                      "subdenomination": null,
                      "typeDescriptions": {
                        "typeIdentifier": null,
                        "typeString": null
                      },
                      "value": "6"
                    },
                    "nodeType": "ArrayTypeName",
                    "src": "414:10:3",
                    "typeDescriptions": {
                      "typeIdentifier": "t_array$_t_address_$6_storage_ptr",
                      "typeString": "address[6]"
                    }
                  },
                  "value": null,
                  "visibility": "internal"
                },
                {
                  "constant": false,
                  "id": 257,
                  "name": "",
                  "nodeType": "VariableDeclaration",
                  "scope": 267,
                  "src": "426:7:3",
                  "stateVariable": false,
                  "storageLocation": "default",
                  "typeDescriptions": {
                    "typeIdentifier": "t_array$_t_bool_$3_memory_ptr",
                    "typeString": "bool[3]"
                  },
                  "typeName": {
                    "baseType": {
                      "id": 254,
                      "name": "bool",
                      "nodeType": "ElementaryTypeName",
                      "src": "426:4:3",
                      "typeDescriptions": {
                        "typeIdentifier": "t_bool",
                        "typeString": "bool"
                      }
                    },
                    "id": 256,
                    "length": {
                      "argumentTypes": null,
                      "hexValue": "33",
                      "id": 255,
                      "isConstant": false,
                      "isLValue": false,
                      "isPure": false,
                      "kind": "number",
                      "lValueRequested": false,
                      "nodeType": "Literal",
                      "src": "431:1:3",
                      "subdenomination": null,
                      "typeDescriptions": {
                        "typeIdentifier": null,
                        "typeString": null
                      },
                      "value": "3"
                    },
                    "nodeType": "ArrayTypeName",
                    "src": "426:7:3",
                    "typeDescriptions": {
                      "typeIdentifier": "t_array$_t_bool_$3_storage_ptr",
                      "typeString": "bool[3]"
                    }
                  },
                  "value": null,
                  "visibility": "internal"
                },
                {
                  "constant": false,
                  "id": 261,
                  "name": "",
                  "nodeType": "VariableDeclaration",
                  "scope": 267,
                  "src": "435:8:3",
                  "stateVariable": false,
                  "storageLocation": "default",
                  "typeDescriptions": {
                    "typeIdentifier": "t_array$_t_uint256_$15_memory_ptr",
                    "typeString": "uint256[15]"
                  },
                  "typeName": {
                    "baseType": {
                      "id": 258,
                      "name": "uint",
                      "nodeType": "ElementaryTypeName",
                      "src": "435:4:3",
                      "typeDescriptions": {
                        "typeIdentifier": "t_uint256",
                        "typeString": "uint256"
                      }
                    },
                    "id": 260,
                    "length": {
                      "argumentTypes": null,
                      "hexValue": "3135",
                      "id": 259,
                      "isConstant": false,
                      "isLValue": false,
                      "isPure": false,
                      "kind": "number",
                      "lValueRequested": false,
                      "nodeType": "Literal",
                      "src": "440:2:3",
                      "subdenomination": null,
                      "typeDescriptions": {
                        "typeIdentifier": null,
                        "typeString": null
                      },
                      "value": "15"
                    },
                    "nodeType": "ArrayTypeName",
                    "src": "435:8:3",
                    "typeDescriptions": {
                      "typeIdentifier": "t_array$_t_uint256_$15_storage_ptr",
                      "typeString": "uint256[15]"
                    }
                  },
                  "value": null,
                  "visibility": "internal"
                },
                {
                  "constant": false,
                  "id": 265,
                  "name": "",
                  "nodeType": "VariableDeclaration",
                  "scope": 267,
                  "src": "445:8:3",
                  "stateVariable": false,
                  "storageLocation": "default",
                  "typeDescriptions": {
                    "typeIdentifier": "t_array$_t_uint8_$1_memory_ptr",
                    "typeString": "uint8[1]"
                  },
                  "typeName": {
                    "baseType": {
                      "id": 262,
                      "name": "uint8",
                      "nodeType": "ElementaryTypeName",
                      "src": "445:5:3",
                      "typeDescriptions": {
                        "typeIdentifier": "t_uint8",
                        "typeString": "uint8"
                      }
                    },
                    "id": 264,
                    "length": {
                      "argumentTypes": null,
                      "hexValue": "31",
                      "id": 263,
                      "isConstant": false,
                      "isLValue": false,
                      "isPure": false,
                      "kind": "number",
                      "lValueRequested": false,
                      "nodeType": "Literal",
                      "src": "451:1:3",
                      "subdenomination": null,
                      "typeDescriptions": {
                        "typeIdentifier": null,
                        "typeString": null
                      },
                      "value": "1"
                    },
                    "nodeType": "ArrayTypeName",
                    "src": "445:8:3",
                    "typeDescriptions": {
                      "typeIdentifier": "t_array$_t_uint8_$1_storage_ptr",
                      "typeString": "uint8[1]"
                    }
                  },
                  "value": null,
                  "visibility": "internal"
                }
              ],
              "src": "413:41:3"
            },
            "scope": 300,
            "src": "370:85:3",
            "stateMutability": "view",
            "superFunction": null,
            "visibility": "public"
          },
          {
            "body": null,
            "documentation": null,
            "id": 272,
            "implemented": false,
            "isConstructor": false,
            "isDeclaredConst": true,
            "modifiers": [],
            "name": "callData",
            "nodeType": "FunctionDefinition",
            "parameters": {
              "id": 268,
              "nodeType": "ParameterList",
              "parameters": [],
              "src": "477:2:3"
            },
            "payable": false,
            "returnParameters": {
              "id": 271,
              "nodeType": "ParameterList",
              "parameters": [
                {
                  "constant": false,
                  "id": 270,
                  "name": "",
                  "nodeType": "VariableDeclaration",
                  "scope": 272,
                  "src": "501:5:3",
                  "stateVariable": false,
                  "storageLocation": "default",
                  "typeDescriptions": {
                    "typeIdentifier": "t_bytes_memory_ptr",
                    "typeString": "bytes"
                  },
                  "typeName": {
                    "id": 269,
                    "name": "bytes",
                    "nodeType": "ElementaryTypeName",
                    "src": "501:5:3",
                    "typeDescriptions": {
                      "typeIdentifier": "t_bytes_storage_ptr",
                      "typeString": "bytes"
                    }
                  },
                  "value": null,
                  "visibility": "internal"
                }
              ],
              "src": "500:7:3"
            },
            "scope": 300,
            "src": "460:48:3",
            "stateMutability": "view",
            "superFunction": null,
            "visibility": "public"
          },
          {
            "body": null,
            "documentation": null,
            "id": 277,
            "implemented": false,
            "isConstructor": false,
            "isDeclaredConst": false,
            "modifiers": [],
            "name": "refundClaimDeposit",
            "nodeType": "FunctionDefinition",
            "parameters": {
              "id": 273,
              "nodeType": "ParameterList",
              "parameters": [],
              "src": "578:2:3"
            },
            "payable": false,
            "returnParameters": {
              "id": 276,
              "nodeType": "ParameterList",
              "parameters": [
                {
                  "constant": false,
                  "id": 275,
                  "name": "",
                  "nodeType": "VariableDeclaration",
                  "scope": 277,
                  "src": "597:4:3",
                  "stateVariable": false,
                  "storageLocation": "default",
                  "typeDescriptions": {
                    "typeIdentifier": "t_bool",
                    "typeString": "bool"
                  },
                  "typeName": {
                    "id": 274,
                    "name": "bool",
                    "nodeType": "ElementaryTypeName",
                    "src": "597:4:3",
                    "typeDescriptions": {
                      "typeIdentifier": "t_bool",
                      "typeString": "bool"
                    }
                  },
                  "value": null,
                  "visibility": "internal"
                }
              ],
              "src": "596:6:3"
            },
            "scope": 300,
            "src": "551:52:3",
            "stateMutability": "nonpayable",
            "superFunction": null,
            "visibility": "public"
          },
          {
            "body": null,
            "documentation": null,
            "id": 282,
            "implemented": false,
            "isConstructor": false,
            "isDeclaredConst": false,
            "modifiers": [],
            "name": "sendFee",
            "nodeType": "FunctionDefinition",
            "parameters": {
              "id": 278,
              "nodeType": "ParameterList",
              "parameters": [],
              "src": "624:2:3"
            },
            "payable": false,
            "returnParameters": {
              "id": 281,
              "nodeType": "ParameterList",
              "parameters": [
                {
                  "constant": false,
                  "id": 280,
                  "name": "",
                  "nodeType": "VariableDeclaration",
                  "scope": 282,
                  "src": "643:4:3",
                  "stateVariable": false,
                  "storageLocation": "default",
                  "typeDescriptions": {
                    "typeIdentifier": "t_bool",
                    "typeString": "bool"
                  },
                  "typeName": {
                    "id": 279,
                    "name": "bool",
                    "nodeType": "ElementaryTypeName",
                    "src": "643:4:3",
                    "typeDescriptions": {
                      "typeIdentifier": "t_bool",
                      "typeString": "bool"
                    }
                  },
                  "value": null,
                  "visibility": "internal"
                }
              ],
              "src": "642:6:3"
            },
            "scope": 300,
            "src": "608:41:3",
            "stateMutability": "nonpayable",
            "superFunction": null,
            "visibility": "public"
          },
          {
            "body": null,
            "documentation": null,
            "id": 287,
            "implemented": false,
            "isConstructor": false,
            "isDeclaredConst": false,
            "modifiers": [],
            "name": "sendBounty",
            "nodeType": "FunctionDefinition",
            "parameters": {
              "id": 283,
              "nodeType": "ParameterList",
              "parameters": [],
              "src": "673:2:3"
            },
            "payable": false,
            "returnParameters": {
              "id": 286,
              "nodeType": "ParameterList",
              "parameters": [
                {
                  "constant": false,
                  "id": 285,
                  "name": "",
                  "nodeType": "VariableDeclaration",
                  "scope": 287,
                  "src": "692:4:3",
                  "stateVariable": false,
                  "storageLocation": "default",
                  "typeDescriptions": {
                    "typeIdentifier": "t_bool",
                    "typeString": "bool"
                  },
                  "typeName": {
                    "id": 284,
                    "name": "bool",
                    "nodeType": "ElementaryTypeName",
                    "src": "692:4:3",
                    "typeDescriptions": {
                      "typeIdentifier": "t_bool",
                      "typeString": "bool"
                    }
                  },
                  "value": null,
                  "visibility": "internal"
                }
              ],
              "src": "691:6:3"
            },
            "scope": 300,
            "src": "654:44:3",
            "stateMutability": "nonpayable",
            "superFunction": null,
            "visibility": "public"
          },
          {
            "body": null,
            "documentation": null,
            "id": 292,
            "implemented": false,
            "isConstructor": false,
            "isDeclaredConst": false,
            "modifiers": [],
            "name": "sendOwnerEther",
            "nodeType": "FunctionDefinition",
            "parameters": {
              "id": 288,
              "nodeType": "ParameterList",
              "parameters": [],
              "src": "726:2:3"
            },
            "payable": false,
            "returnParameters": {
              "id": 291,
              "nodeType": "ParameterList",
              "parameters": [
                {
                  "constant": false,
                  "id": 290,
                  "name": "",
                  "nodeType": "VariableDeclaration",
                  "scope": 292,
                  "src": "745:4:3",
                  "stateVariable": false,
                  "storageLocation": "default",
                  "typeDescriptions": {
                    "typeIdentifier": "t_bool",
                    "typeString": "bool"
                  },
                  "typeName": {
                    "id": 289,
                    "name": "bool",
                    "nodeType": "ElementaryTypeName",
                    "src": "745:4:3",
                    "typeDescriptions": {
                      "typeIdentifier": "t_bool",
                      "typeString": "bool"
                    }
                  },
                  "value": null,
                  "visibility": "internal"
                }
              ],
              "src": "744:6:3"
            },
            "scope": 300,
            "src": "703:48:3",
            "stateMutability": "nonpayable",
            "superFunction": null,
            "visibility": "public"
          },
          {
            "body": null,
            "documentation": null,
            "id": 299,
            "implemented": false,
            "isConstructor": false,
            "isDeclaredConst": false,
            "modifiers": [],
            "name": "sendOwnerEther",
            "nodeType": "FunctionDefinition",
            "parameters": {
              "id": 295,
              "nodeType": "ParameterList",
              "parameters": [
                {
                  "constant": false,
                  "id": 294,
                  "name": "recipient",
                  "nodeType": "VariableDeclaration",
                  "scope": 299,
                  "src": "780:17:3",
                  "stateVariable": false,
                  "storageLocation": "default",
                  "typeDescriptions": {
                    "typeIdentifier": "t_address",
                    "typeString": "address"
                  },
                  "typeName": {
                    "id": 293,
                    "name": "address",
                    "nodeType": "ElementaryTypeName",
                    "src": "780:7:3",
                    "typeDescriptions": {
                      "typeIdentifier": "t_address",
                      "typeString": "address"
                    }
                  },
                  "value": null,
                  "visibility": "internal"
                }
              ],
              "src": "779:19:3"
            },
            "payable": false,
            "returnParameters": {
              "id": 298,
              "nodeType": "ParameterList",
              "parameters": [
                {
                  "constant": false,
                  "id": 297,
                  "name": "",
                  "nodeType": "VariableDeclaration",
                  "scope": 299,
                  "src": "815:4:3",
                  "stateVariable": false,
                  "storageLocation": "default",
                  "typeDescriptions": {
                    "typeIdentifier": "t_bool",
                    "typeString": "bool"
                  },
                  "typeName": {
                    "id": 296,
                    "name": "bool",
                    "nodeType": "ElementaryTypeName",
                    "src": "815:4:3",
                    "typeDescriptions": {
                      "typeIdentifier": "t_bool",
                      "typeString": "bool"
                    }
                  },
                  "value": null,
                  "visibility": "internal"
                }
              ],
              "src": "814:6:3"
            },
            "scope": 300,
            "src": "756:65:3",
            "stateMutability": "nonpayable",
            "superFunction": null,
            "visibility": "public"
          }
        ],
        "scope": 301,
        "src": "25:798:3"
      }
    ],
    "src": "0:824:3"
  },
  "legacyAST": {
    "attributes": {
      "absolutePath": "project:/contracts/Interface/TransactionRequestInterface.sol",
      "exportedSymbols": {
        "TransactionRequestInterface": [
          300
        ]
      }
    },
    "children": [
      {
        "attributes": {
          "literals": [
            "solidity",
            "0.4",
            ".24"
          ]
        },
        "id": 224,
        "name": "PragmaDirective",
        "src": "0:23:3"
      },
      {
        "attributes": {
          "baseContracts": [
            null
          ],
          "contractDependencies": [
            null
          ],
          "contractKind": "contract",
          "documentation": null,
          "fullyImplemented": false,
          "linearizedBaseContracts": [
            300
          ],
          "name": "TransactionRequestInterface",
          "scope": 301
        },
        "children": [
          {
            "attributes": {
              "body": null,
              "constant": false,
              "documentation": null,
              "implemented": false,
              "isConstructor": false,
              "modifiers": [
                null
              ],
              "name": "execute",
              "payable": false,
              "scope": 300,
              "stateMutability": "nonpayable",
              "superFunction": null,
              "visibility": "public"
            },
            "children": [
              {
                "attributes": {
                  "parameters": [
                    null
                  ]
                },
                "children": [],
                "id": 225,
                "name": "ParameterList",
                "src": "112:2:3"
              },
              {
                "children": [
                  {
                    "attributes": {
                      "constant": false,
                      "name": "",
                      "scope": 229,
                      "stateVariable": false,
                      "storageLocation": "default",
                      "type": "bool",
                      "value": null,
                      "visibility": "internal"
                    },
                    "children": [
                      {
                        "attributes": {
                          "name": "bool",
                          "type": "bool"
                        },
                        "id": 226,
                        "name": "ElementaryTypeName",
                        "src": "131:4:3"
                      }
                    ],
                    "id": 227,
                    "name": "VariableDeclaration",
                    "src": "131:4:3"
                  }
                ],
                "id": 228,
                "name": "ParameterList",
                "src": "130:6:3"
              }
            ],
            "id": 229,
            "name": "FunctionDefinition",
            "src": "96:41:3"
          },
          {
            "attributes": {
              "body": null,
              "constant": false,
              "documentation": null,
              "implemented": false,
              "isConstructor": false,
              "modifiers": [
                null
              ],
              "name": "cancel",
              "payable": false,
              "scope": 300,
              "stateMutability": "nonpayable",
              "superFunction": null,
              "visibility": "public"
            },
            "children": [
              {
                "attributes": {
                  "parameters": [
                    null
                  ]
                },
                "children": [],
                "id": 230,
                "name": "ParameterList",
                "src": "157:2:3"
              },
              {
                "children": [
                  {
                    "attributes": {
                      "constant": false,
                      "name": "",
                      "scope": 234,
                      "stateVariable": false,
                      "storageLocation": "default",
                      "type": "bool",
                      "value": null,
                      "visibility": "internal"
                    },
                    "children": [
                      {
                        "attributes": {
                          "name": "bool",
                          "type": "bool"
                        },
                        "id": 231,
                        "name": "ElementaryTypeName",
                        "src": "176:4:3"
                      }
                    ],
                    "id": 232,
                    "name": "VariableDeclaration",
                    "src": "176:4:3"
                  }
                ],
                "id": 233,
                "name": "ParameterList",
                "src": "175:6:3"
              }
            ],
            "id": 234,
            "name": "FunctionDefinition",
            "src": "142:40:3"
          },
          {
            "attributes": {
              "body": null,
              "constant": false,
              "documentation": null,
              "implemented": false,
              "isConstructor": false,
              "modifiers": [
                null
              ],
              "name": "claim",
              "payable": true,
              "scope": 300,
              "stateMutability": "payable",
              "superFunction": null,
              "visibility": "public"
            },
            "children": [
              {
                "attributes": {
                  "parameters": [
                    null
                  ]
                },
                "children": [],
                "id": 235,
                "name": "ParameterList",
                "src": "201:2:3"
              },
              {
                "children": [
                  {
                    "attributes": {
                      "constant": false,
                      "name": "",
                      "scope": 239,
                      "stateVariable": false,
                      "storageLocation": "default",
                      "type": "bool",
                      "value": null,
                      "visibility": "internal"
                    },
                    "children": [
                      {
                        "attributes": {
                          "name": "bool",
                          "type": "bool"
                        },
                        "id": 236,
                        "name": "ElementaryTypeName",
                        "src": "228:4:3"
                      }
                    ],
                    "id": 237,
                    "name": "VariableDeclaration",
                    "src": "228:4:3"
                  }
                ],
                "id": 238,
                "name": "ParameterList",
                "src": "227:6:3"
              }
            ],
            "id": 239,
            "name": "FunctionDefinition",
            "src": "187:47:3"
          },
          {
            "attributes": {
              "body": null,
              "constant": false,
              "documentation": null,
              "implemented": false,
              "isConstructor": false,
              "modifiers": [
                null
              ],
              "name": "proxy",
              "payable": true,
              "scope": 300,
              "stateMutability": "payable",
              "superFunction": null,
              "visibility": "public"
            },
            "children": [
              {
                "children": [
                  {
                    "attributes": {
                      "constant": false,
                      "name": "recipient",
                      "scope": 248,
                      "stateVariable": false,
                      "storageLocation": "default",
                      "type": "address",
                      "value": null,
                      "visibility": "internal"
                    },
                    "children": [
                      {
                        "attributes": {
                          "name": "address",
                          "type": "address"
                        },
                        "id": 240,
                        "name": "ElementaryTypeName",
                        "src": "277:7:3"
                      }
                    ],
                    "id": 241,
                    "name": "VariableDeclaration",
                    "src": "277:17:3"
                  },
                  {
                    "attributes": {
                      "constant": false,
                      "name": "callData",
                      "scope": 248,
                      "stateVariable": false,
                      "storageLocation": "default",
                      "type": "bytes",
                      "value": null,
                      "visibility": "internal"
                    },
                    "children": [
                      {
                        "attributes": {
                          "name": "bytes",
                          "type": "bytes"
                        },
                        "id": 242,
                        "name": "ElementaryTypeName",
                        "src": "296:5:3"
                      }
                    ],
                    "id": 243,
                    "name": "VariableDeclaration",
                    "src": "296:14:3"
                  }
                ],
                "id": 244,
                "name": "ParameterList",
                "src": "276:35:3"
              },
              {
                "children": [
                  {
                    "attributes": {
                      "constant": false,
                      "name": "",
                      "scope": 248,
                      "stateVariable": false,
                      "storageLocation": "default",
                      "type": "bool",
                      "value": null,
                      "visibility": "internal"
                    },
                    "children": [
                      {
                        "attributes": {
                          "name": "bool",
                          "type": "bool"
                        },
                        "id": 245,
                        "name": "ElementaryTypeName",
                        "src": "336:4:3"
                      }
                    ],
                    "id": 246,
                    "name": "VariableDeclaration",
                    "src": "336:4:3"
                  }
                ],
                "id": 247,
                "name": "ParameterList",
                "src": "335:6:3"
              }
            ],
            "id": 248,
            "name": "FunctionDefinition",
            "src": "262:80:3"
          },
          {
            "attributes": {
              "body": null,
              "constant": true,
              "documentation": null,
              "implemented": false,
              "isConstructor": false,
              "modifiers": [
                null
              ],
              "name": "requestData",
              "payable": false,
              "scope": 300,
              "stateMutability": "view",
              "superFunction": null,
              "visibility": "public"
            },
            "children": [
              {
                "attributes": {
                  "parameters": [
                    null
                  ]
                },
                "children": [],
                "id": 249,
                "name": "ParameterList",
                "src": "390:2:3"
              },
              {
                "children": [
                  {
                    "attributes": {
                      "constant": false,
                      "name": "",
                      "scope": 267,
                      "stateVariable": false,
                      "storageLocation": "default",
                      "type": "address[6]",
                      "value": null,
                      "visibility": "internal"
                    },
                    "children": [
                      {
                        "attributes": {
                          "type": "address[6]"
                        },
                        "children": [
                          {
                            "attributes": {
                              "name": "address",
                              "type": "address"
                            },
                            "id": 250,
                            "name": "ElementaryTypeName",
                            "src": "414:7:3"
                          },
                          {
                            "attributes": {
                              "argumentTypes": null,
                              "hexvalue": "36",
                              "isConstant": false,
                              "isLValue": false,
                              "isPure": false,
                              "lValueRequested": false,
                              "subdenomination": null,
                              "token": "number",
                              "type": null,
                              "value": "6"
                            },
                            "id": 251,
                            "name": "Literal",
                            "src": "422:1:3"
                          }
                        ],
                        "id": 252,
                        "name": "ArrayTypeName",
                        "src": "414:10:3"
                      }
                    ],
                    "id": 253,
                    "name": "VariableDeclaration",
                    "src": "414:10:3"
                  },
                  {
                    "attributes": {
                      "constant": false,
                      "name": "",
                      "scope": 267,
                      "stateVariable": false,
                      "storageLocation": "default",
                      "type": "bool[3]",
                      "value": null,
                      "visibility": "internal"
                    },
                    "children": [
                      {
                        "attributes": {
                          "type": "bool[3]"
                        },
                        "children": [
                          {
                            "attributes": {
                              "name": "bool",
                              "type": "bool"
                            },
                            "id": 254,
                            "name": "ElementaryTypeName",
                            "src": "426:4:3"
                          },
                          {
                            "attributes": {
                              "argumentTypes": null,
                              "hexvalue": "33",
                              "isConstant": false,
                              "isLValue": false,
                              "isPure": false,
                              "lValueRequested": false,
                              "subdenomination": null,
                              "token": "number",
                              "type": null,
                              "value": "3"
                            },
                            "id": 255,
                            "name": "Literal",
                            "src": "431:1:3"
                          }
                        ],
                        "id": 256,
                        "name": "ArrayTypeName",
                        "src": "426:7:3"
                      }
                    ],
                    "id": 257,
                    "name": "VariableDeclaration",
                    "src": "426:7:3"
                  },
                  {
                    "attributes": {
                      "constant": false,
                      "name": "",
                      "scope": 267,
                      "stateVariable": false,
                      "storageLocation": "default",
                      "type": "uint256[15]",
                      "value": null,
                      "visibility": "internal"
                    },
                    "children": [
                      {
                        "attributes": {
                          "type": "uint256[15]"
                        },
                        "children": [
                          {
                            "attributes": {
                              "name": "uint",
                              "type": "uint256"
                            },
                            "id": 258,
                            "name": "ElementaryTypeName",
                            "src": "435:4:3"
                          },
                          {
                            "attributes": {
                              "argumentTypes": null,
                              "hexvalue": "3135",
                              "isConstant": false,
                              "isLValue": false,
                              "isPure": false,
                              "lValueRequested": false,
                              "subdenomination": null,
                              "token": "number",
                              "type": null,
                              "value": "15"
                            },
                            "id": 259,
                            "name": "Literal",
                            "src": "440:2:3"
                          }
                        ],
                        "id": 260,
                        "name": "ArrayTypeName",
                        "src": "435:8:3"
                      }
                    ],
                    "id": 261,
                    "name": "VariableDeclaration",
                    "src": "435:8:3"
                  },
                  {
                    "attributes": {
                      "constant": false,
                      "name": "",
                      "scope": 267,
                      "stateVariable": false,
                      "storageLocation": "default",
                      "type": "uint8[1]",
                      "value": null,
                      "visibility": "internal"
                    },
                    "children": [
                      {
                        "attributes": {
                          "type": "uint8[1]"
                        },
                        "children": [
                          {
                            "attributes": {
                              "name": "uint8",
                              "type": "uint8"
                            },
                            "id": 262,
                            "name": "ElementaryTypeName",
                            "src": "445:5:3"
                          },
                          {
                            "attributes": {
                              "argumentTypes": null,
                              "hexvalue": "31",
                              "isConstant": false,
                              "isLValue": false,
                              "isPure": false,
                              "lValueRequested": false,
                              "subdenomination": null,
                              "token": "number",
                              "type": null,
                              "value": "1"
                            },
                            "id": 263,
                            "name": "Literal",
                            "src": "451:1:3"
                          }
                        ],
                        "id": 264,
                        "name": "ArrayTypeName",
                        "src": "445:8:3"
                      }
                    ],
                    "id": 265,
                    "name": "VariableDeclaration",
                    "src": "445:8:3"
                  }
                ],
                "id": 266,
                "name": "ParameterList",
                "src": "413:41:3"
              }
            ],
            "id": 267,
            "name": "FunctionDefinition",
            "src": "370:85:3"
          },
          {
            "attributes": {
              "body": null,
              "constant": true,
              "documentation": null,
              "implemented": false,
              "isConstructor": false,
              "modifiers": [
                null
              ],
              "name": "callData",
              "payable": false,
              "scope": 300,
              "stateMutability": "view",
              "superFunction": null,
              "visibility": "public"
            },
            "children": [
              {
                "attributes": {
                  "parameters": [
                    null
                  ]
                },
                "children": [],
                "id": 268,
                "name": "ParameterList",
                "src": "477:2:3"
              },
              {
                "children": [
                  {
                    "attributes": {
                      "constant": false,
                      "name": "",
                      "scope": 272,
                      "stateVariable": false,
                      "storageLocation": "default",
                      "type": "bytes",
                      "value": null,
                      "visibility": "internal"
                    },
                    "children": [
                      {
                        "attributes": {
                          "name": "bytes",
                          "type": "bytes"
                        },
                        "id": 269,
                        "name": "ElementaryTypeName",
                        "src": "501:5:3"
                      }
                    ],
                    "id": 270,
                    "name": "VariableDeclaration",
                    "src": "501:5:3"
                  }
                ],
                "id": 271,
                "name": "ParameterList",
                "src": "500:7:3"
              }
            ],
            "id": 272,
            "name": "FunctionDefinition",
            "src": "460:48:3"
          },
          {
            "attributes": {
              "body": null,
              "constant": false,
              "documentation": null,
              "implemented": false,
              "isConstructor": false,
              "modifiers": [
                null
              ],
              "name": "refundClaimDeposit",
              "payable": false,
              "scope": 300,
              "stateMutability": "nonpayable",
              "superFunction": null,
              "visibility": "public"
            },
            "children": [
              {
                "attributes": {
                  "parameters": [
                    null
                  ]
                },
                "children": [],
                "id": 273,
                "name": "ParameterList",
                "src": "578:2:3"
              },
              {
                "children": [
                  {
                    "attributes": {
                      "constant": false,
                      "name": "",
                      "scope": 277,
                      "stateVariable": false,
                      "storageLocation": "default",
                      "type": "bool",
                      "value": null,
                      "visibility": "internal"
                    },
                    "children": [
                      {
                        "attributes": {
                          "name": "bool",
                          "type": "bool"
                        },
                        "id": 274,
                        "name": "ElementaryTypeName",
                        "src": "597:4:3"
                      }
                    ],
                    "id": 275,
                    "name": "VariableDeclaration",
                    "src": "597:4:3"
                  }
                ],
                "id": 276,
                "name": "ParameterList",
                "src": "596:6:3"
              }
            ],
            "id": 277,
            "name": "FunctionDefinition",
            "src": "551:52:3"
          },
          {
            "attributes": {
              "body": null,
              "constant": false,
              "documentation": null,
              "implemented": false,
              "isConstructor": false,
              "modifiers": [
                null
              ],
              "name": "sendFee",
              "payable": false,
              "scope": 300,
              "stateMutability": "nonpayable",
              "superFunction": null,
              "visibility": "public"
            },
            "children": [
              {
                "attributes": {
                  "parameters": [
                    null
                  ]
                },
                "children": [],
                "id": 278,
                "name": "ParameterList",
                "src": "624:2:3"
              },
              {
                "children": [
                  {
                    "attributes": {
                      "constant": false,
                      "name": "",
                      "scope": 282,
                      "stateVariable": false,
                      "storageLocation": "default",
                      "type": "bool",
                      "value": null,
                      "visibility": "internal"
                    },
                    "children": [
                      {
                        "attributes": {
                          "name": "bool",
                          "type": "bool"
                        },
                        "id": 279,
                        "name": "ElementaryTypeName",
                        "src": "643:4:3"
                      }
                    ],
                    "id": 280,
                    "name": "VariableDeclaration",
                    "src": "643:4:3"
                  }
                ],
                "id": 281,
                "name": "ParameterList",
                "src": "642:6:3"
              }
            ],
            "id": 282,
            "name": "FunctionDefinition",
            "src": "608:41:3"
          },
          {
            "attributes": {
              "body": null,
              "constant": false,
              "documentation": null,
              "implemented": false,
              "isConstructor": false,
              "modifiers": [
                null
              ],
              "name": "sendBounty",
              "payable": false,
              "scope": 300,
              "stateMutability": "nonpayable",
              "superFunction": null,
              "visibility": "public"
            },
            "children": [
              {
                "attributes": {
                  "parameters": [
                    null
                  ]
                },
                "children": [],
                "id": 283,
                "name": "ParameterList",
                "src": "673:2:3"
              },
              {
                "children": [
                  {
                    "attributes": {
                      "constant": false,
                      "name": "",
                      "scope": 287,
                      "stateVariable": false,
                      "storageLocation": "default",
                      "type": "bool",
                      "value": null,
                      "visibility": "internal"
                    },
                    "children": [
                      {
                        "attributes": {
                          "name": "bool",
                          "type": "bool"
                        },
                        "id": 284,
                        "name": "ElementaryTypeName",
                        "src": "692:4:3"
                      }
                    ],
                    "id": 285,
                    "name": "VariableDeclaration",
                    "src": "692:4:3"
                  }
                ],
                "id": 286,
                "name": "ParameterList",
                "src": "691:6:3"
              }
            ],
            "id": 287,
            "name": "FunctionDefinition",
            "src": "654:44:3"
          },
          {
            "attributes": {
              "body": null,
              "constant": false,
              "documentation": null,
              "implemented": false,
              "isConstructor": false,
              "modifiers": [
                null
              ],
              "name": "sendOwnerEther",
              "payable": false,
              "scope": 300,
              "stateMutability": "nonpayable",
              "superFunction": null,
              "visibility": "public"
            },
            "children": [
              {
                "attributes": {
                  "parameters": [
                    null
                  ]
                },
                "children": [],
                "id": 288,
                "name": "ParameterList",
                "src": "726:2:3"
              },
              {
                "children": [
                  {
                    "attributes": {
                      "constant": false,
                      "name": "",
                      "scope": 292,
                      "stateVariable": false,
                      "storageLocation": "default",
                      "type": "bool",
                      "value": null,
                      "visibility": "internal"
                    },
                    "children": [
                      {
                        "attributes": {
                          "name": "bool",
                          "type": "bool"
                        },
                        "id": 289,
                        "name": "ElementaryTypeName",
                        "src": "745:4:3"
                      }
                    ],
                    "id": 290,
                    "name": "VariableDeclaration",
                    "src": "745:4:3"
                  }
                ],
                "id": 291,
                "name": "ParameterList",
                "src": "744:6:3"
              }
            ],
            "id": 292,
            "name": "FunctionDefinition",
            "src": "703:48:3"
          },
          {
            "attributes": {
              "body": null,
              "constant": false,
              "documentation": null,
              "implemented": false,
              "isConstructor": false,
              "modifiers": [
                null
              ],
              "name": "sendOwnerEther",
              "payable": false,
              "scope": 300,
              "stateMutability": "nonpayable",
              "superFunction": null,
              "visibility": "public"
            },
            "children": [
              {
                "children": [
                  {
                    "attributes": {
                      "constant": false,
                      "name": "recipient",
                      "scope": 299,
                      "stateVariable": false,
                      "storageLocation": "default",
                      "type": "address",
                      "value": null,
                      "visibility": "internal"
                    },
                    "children": [
                      {
                        "attributes": {
                          "name": "address",
                          "type": "address"
                        },
                        "id": 293,
                        "name": "ElementaryTypeName",
                        "src": "780:7:3"
                      }
                    ],
                    "id": 294,
                    "name": "VariableDeclaration",
                    "src": "780:17:3"
                  }
                ],
                "id": 295,
                "name": "ParameterList",
                "src": "779:19:3"
              },
              {
                "children": [
                  {
                    "attributes": {
                      "constant": false,
                      "name": "",
                      "scope": 299,
                      "stateVariable": false,
                      "storageLocation": "default",
                      "type": "bool",
                      "value": null,
                      "visibility": "internal"
                    },
                    "children": [
                      {
                        "attributes": {
                          "name": "bool",
                          "type": "bool"
                        },
                        "id": 296,
                        "name": "ElementaryTypeName",
                        "src": "815:4:3"
                      }
                    ],
                    "id": 297,
                    "name": "VariableDeclaration",
                    "src": "815:4:3"
                  }
                ],
                "id": 298,
                "name": "ParameterList",
                "src": "814:6:3"
              }
            ],
            "id": 299,
            "name": "FunctionDefinition",
            "src": "756:65:3"
          }
        ],
        "id": 300,
        "name": "ContractDefinition",
        "src": "25:798:3"
      }
    ],
    "id": 301,
    "name": "SourceUnit",
    "src": "0:824:3"
  },
  "compiler": {
    "name": "solc",
    "version": "0.4.24+commit.e67f0147.Emscripten.clang"
  },
  "networks": {},
  "schemaVersion": "3.4.3",
  "updatedAt": "2021-09-30T16:15:03.514Z",
  "devdoc": {
    "methods": {}
  },
  "userdoc": {
    "methods": {}
  }
}